<?xml version="1.0" encoding="utf-8"?>
<!-- Generator: Adobe Illustrator 15.0.2, SVG Export Plug-In . SVG Version: 6.00 Build 0)  -->
<!DOCTYPE svg PUBLIC "-//W3C//DTD SVG 1.1//EN" "http://www.w3.org/Graphics/SVG/1.1/DTD/svg11.dtd">
<svg version="1.1" id="_x38__1_" xmlns="http://www.w3.org/2000/svg" xmlns:xlink="http://www.w3.org/1999/xlink" x="0px" y="0px"
	 width="52px" height="52px" viewBox="0 0 52 52" enable-background="new 0 0 52 52" xml:space="preserve">
<g id="_x38_">
	<g>
		<path fill-rule="evenodd" clip-rule="evenodd" fill="#FFFFFF" d="M34.611,25.025l-10.789-7.843
			c-0.396-0.287-0.922-0.33-1.355-0.107c-0.438,0.221-0.711,0.671-0.711,1.156v15.683c0,0.489,0.273,0.938,0.711,1.158
			c0.185,0.095,0.387,0.142,0.591,0.142c0.267,0,0.536-0.086,0.765-0.253l10.789-7.837c0.341-0.25,0.539-0.638,0.539-1.049
			C35.153,25.656,34.947,25.271,34.611,25.025z M26.042,0.065c-14.351,0-25.98,11.629-25.98,25.98
			c0,14.345,11.63,25.972,25.98,25.972c14.349,0,25.979-11.627,25.979-25.972C52.021,11.694,40.391,0.065,26.042,0.065z
			 M26.042,47.682c-11.951,0-21.641-9.684-21.641-21.636c0-11.947,9.689-21.645,21.641-21.645c11.95,0,21.637,9.695,21.637,21.645
			C47.682,37.998,37.992,47.682,26.042,47.682z"/>
	</g>
</g>
</svg>
